<?xml version="1.0" encoding="UTF-8"?>
<svg width="80px" height="20px" viewBox="0 0 80 20" version="1.1" xmlns="http://www.w3.org/2000/svg" xmlns:xlink="http://www.w3.org/1999/xlink">
    <!-- Generator: Sketch 50.2 (55047) - http://www.bohemiancoding.com/sketch -->
    <title>roda logo</title>
    <desc>Created with Sketch.</desc>
    <defs></defs>
    <g id="Page-1" stroke="none" stroke-width="1" fill="none" fill-rule="evenodd">
        <g id="home" transform="translate(-964.000000, -999.000000)">
            <g id="footer" transform="translate(0.000000, 803.000000)">
                <g id="roda-logo" transform="translate(964.000000, 196.000000)">
                    <path d="M19.5099029,16.225 C17.9565049,15.0326923 16.8528155,13.4511538 15.7693204,11.8357692 C19.0345631,10.5396154 19.7242718,7.99346154 19.398835,5.10192308 C19.1425243,2.82423077 17.2947573,0.933461538 14.7324272,0.654230769 C12.7238835,0.435769231 10.8854369,0.498076923 8.66951456,0.498076923 C6.50873786,0.498076923 3.49048544,0.507307692 2.23145631,0.507307692 L2.23145631,3.10038462 C2.7223301,3.13576923 3.21475728,3.15576923 3.70252427,3.20961538 C4.35805825,3.28038462 4.60815534,3.53961538 4.61902913,4.19346154 C4.6392233,5.45192308 4.6392233,6.71038462 4.6392233,7.96884615 L4.6392233,10.855 C3.17592233,13.3534615 1.1168932,16.8019231 0,18.6688462 C0.980194175,17.7611538 3.03145631,15.8580769 3.44932039,15.4673077 C3.7592233,15.1326923 9.98213592,9.57346154 10.598835,8.83346154 C11.9852427,7.35653846 11.9207767,5.27115385 10.3712621,5.11346154 C8.10718447,4.97423077 8.39145631,8.14576923 10.8124272,7.37884615 C10.8124272,7.37884615 10.7487379,7.68115385 10.518835,8.01115385 C10.3518447,8.25115385 10.1491262,8.39576923 10.0994175,8.43038462 C9.05708738,9.13192308 7.85708738,8.55807692 7.22873786,7.78346154 C6.99961165,7.50115385 6.87456311,7.20115385 6.82097087,6.91269231 C6.42485437,4.77653846 8.1631068,3.26730769 10.015534,3.14961538 C10.464466,3.11192308 10.6182524,3.12423077 11.1246602,3.18038462 C12.8132039,3.445 13.9153398,4.85038462 14.0706796,6.33038462 C14.384466,9.30961538 10.1887379,12.3896154 9.63961165,12.9373077 C8.3961165,13.9173077 7.29398058,14.9165385 6.65165049,15.5219231 C4.83029126,17.3773077 3.67533981,18.3934615 3.10213592,19.4480769 L12.064466,19.4480769 L12.064466,16.9111538 C11.5751456,16.8542308 11.096699,16.8257692 10.6547573,16.7211538 C10.2757282,16.6311538 9.90135922,16.365 9.90135922,15.9034615 C9.90135922,15.2165385 9.89669903,14.5388462 9.89203883,13.8596154 C10.2128155,13.565 10.5537864,13.2526923 10.8978641,12.9365385 C10.9165049,12.9688462 10.9343689,13.0019231 10.9553398,13.0373077 C11.5231068,14.0296154 12.0869903,15.0288462 12.7347573,15.9703846 C13.9666019,17.7619231 15.5021359,19.1857692 17.8135922,19.3842308 C18.8916505,19.4765385 20.5499029,19.3996154 21.0640777,19.3996154 L21.0640777,16.9103846 C20.6718447,16.8003846 19.9238835,16.5434615 19.5099029,16.225" id="Fill-1" fill="#006BB7"></path>
                    <path d="M47.6735534,4.243 C47.6222913,4.29915385 47.5989903,4.313 47.5989903,4.32684615 C47.5927767,7.85530769 47.5834563,11.383 47.5873398,14.9106923 C47.5881165,15.4160769 47.8537476,15.7953077 48.3749126,15.8576154 C49.0079223,15.9322308 49.6541359,15.9791538 50.288699,15.943 C52.1224854,15.8383846 53.3582136,14.8283846 53.8265631,13.0668462 C54.3368544,11.1476154 54.3220971,9.20376923 53.9081165,7.27607692 C53.664233,6.13761538 53.0941359,5.16838462 51.9290874,4.70376923 C50.5426796,4.15146154 49.0902524,4.18992308 47.6735534,4.243 M40.0914175,19.4237692 L40.0914175,16.9060769 C40.5861748,16.853 41.0514175,16.7883846 41.5189903,16.7568462 C42.1271456,16.7176154 42.3834563,16.3606923 42.4339417,15.8114615 C42.4595728,15.5314615 42.4580194,15.2483846 42.4580194,14.9660769 C42.4549126,11.4353077 42.4549126,7.90223077 42.4432621,4.37069231 C42.4401553,3.49838462 42.2560777,3.31146154 41.3613204,3.19223077 C40.9512233,3.13761538 40.5380194,3.10530769 40.095301,3.05915385 L40.095301,0.568384615 C40.247534,0.555307692 40.3935534,0.531461538 40.5387961,0.533 C43.7248155,0.562230769 46.913165,0.426076923 50.0968544,0.540692308 C51.5026796,0.590692308 52.9341359,0.793 54.2910291,1.15992308 C57.0521942,1.90530769 58.7376311,3.89992308 59.3558835,6.64915385 C59.8428738,8.81915385 59.8273398,11.0206923 59.2518058,13.1745385 C58.4176311,16.2968462 56.3252039,18.3068462 53.1663689,18.9753077 C51.7116117,19.2837692 50.2125825,19.483 48.7267573,19.5299231 C45.9601553,19.6168462 43.1881165,19.4460769 40.4191845,19.4460769 C40.3259806,19.4460769 40.2335534,19.4337692 40.0914175,19.4237692" id="Fill-6" fill="#006BB7"></path>
                    <path d="M34.2227573,13.2946154 C33.7000388,15.1176923 32.3982913,16.1423077 30.6895534,16.1807692 C30.5800388,16.1830769 30.4728544,16.1830769 30.3687767,16.1807692 C30.2631456,16.1830769 30.1575146,16.1830769 30.048,16.1807692 C28.3384854,16.1423077 27.0367379,15.1176923 26.5140194,13.2946154 C25.9081942,11.1838462 25.8243107,9.03846154 26.391301,6.90692308 C27.0359612,4.49 28.7276117,3.62615385 30.3687767,3.63307692 C32.009165,3.62615385 33.7015922,4.49 34.344699,6.90692308 C34.912466,9.03846154 34.8285825,11.1838462 34.2227573,13.2946154 M39.5012039,6.35692308 C38.5714951,3.49846154 36.6336311,1.58923077 33.759068,0.681538462 C32.6344078,0.325384615 31.5012039,0.133076923 30.3687767,0.0976923077 C29.0180971,0.0976923077 28.1031456,0.325384615 26.9777087,0.681538462 C24.1031456,1.58923077 22.1652816,3.49846154 21.2355728,6.35692308 C20.4161553,8.87692308 20.4487767,11.42 21.2200388,13.9353846 C22.0052816,16.4984615 23.6961553,18.2876923 26.2514951,19.1938462 C27.5959612,19.6707692 28.9761553,19.8661538 30.3687767,19.8438462 C31.7613981,19.8661538 33.1408155,19.6707692 34.4852816,19.1938462 C37.0406214,18.2876923 38.7307184,16.4984615 39.5159612,13.9353846 C40.288,11.42 40.3206214,8.87692308 39.5012039,6.35692308" id="Fill-8" fill="#006BB7"></path>
                    <path d="M68.0365049,5.44153846 C67.4617476,7.1 66.9141748,8.67846154 66.3580583,10.2830769 L69.6,10.2830769 C69.0780583,8.66846154 68.5700971,7.09230769 68.0365049,5.44153846 Z M79.5697087,19.4484615 L69.1207767,19.4484615 L69.1207767,16.9261538 C69.6225243,16.8392308 70.1266019,16.7830769 70.6128155,16.6569231 C71.2582524,16.4892308 71.4423301,16.1653846 71.3157282,15.5292308 C71.2535922,15.2169231 71.176699,14.9076923 71.0873786,14.6030769 C70.8458252,13.7869231 70.841165,13.7876923 69.9572816,13.7876923 C68.6097087,13.7876923 67.2621359,13.8084615 65.9168932,13.7753846 C65.4733981,13.7646154 65.2590291,13.9053846 65.1673786,14.32 C65.071068,14.7569231 64.9250485,15.1846154 64.831068,15.6223077 C64.7176699,16.1453846 64.918835,16.5223077 65.4617476,16.6323077 C66.0699029,16.7553846 66.6881553,16.83 67.3460194,16.9330769 L67.3460194,19.4246154 L58.2198058,19.4246154 L58.2198058,16.8846154 C58.3728155,16.8730769 58.5180583,16.8623077 58.6640777,16.8538462 C59.5945631,16.8015385 60.3075728,16.4069231 60.6609709,15.5261538 C61.4205825,13.6323077 62.1638835,11.7323077 62.903301,9.83 C63.8120388,7.49230769 64.7223301,5.15384615 65.6062136,2.80615385 C66.1320388,1.40615385 66.9716505,0.366923077 68.5273786,0.0569230769 C68.8939806,0.00538461538 68.9685437,0 69.1961165,0 C69.3864078,0 69.5401942,0.0123076923 69.7794175,0.0569230769 C71.264466,0.415384615 72.0201942,1.45307692 72.4302913,2.82538462 C72.5530097,3.23692308 72.72,3.63538462 72.8691262,4.03923077 C74.2260194,7.72384615 75.568932,11.4130769 76.9499029,15.0884615 C77.4702913,16.4723077 78.1001942,16.8530769 79.5697087,16.8553846 L79.5697087,19.4484615 Z" id="Fill-3" fill="#006BB7"></path>
                    <path d="M6.90368932,8.13230769 C6.86407767,8.21769231 6.82368932,8.30307692 6.78097087,8.38384615 C5.90330097,10.0684615 1.68504854,16.6069231 1.68504854,16.6069231 L9.06524272,9.30230769 C8.05941748,9.24615385 7.35495146,8.72923077 6.90368932,8.13230769" id="Fill-11" fill="#ED3528"></path>
                </g>
            </g>
        </g>
    </g>
</svg>